<?xml version="1.0" encoding="UTF-8" standalone="no"?>
<svg width="15px" height="77px" viewBox="0 0 15 77" version="1.1" xmlns="http://www.w3.org/2000/svg" xmlns:xlink="http://www.w3.org/1999/xlink">
    <!-- Generator: sketchtool 3.6 (26304) - http://www.bohemiancoding.com/sketch -->
    <title>Rectangle 29</title>
    <desc>Created with sketchtool.</desc>
    <defs></defs>
    <g id="Page-1" stroke="none" stroke-width="1" fill="none" fill-rule="evenodd">
        <g id="Main" transform="translate(-462.000000, -374.000000)" fill="#FFFFFF">
            <g id="main">
                <g id="Group-5" transform="translate(431.000000, 323.000000)">
                    <path d="M63.8093975,114.173359 L63.8093975,106.294679 L64.8093975,106.294679 L64.8093975,114.880465 L65.2236111,114.880465 L65.2236111,115.880465 L64.8093975,115.880465 L64.8093975,116.294679 L63.8093975,116.294679 L63.8093975,115.880465 L55.2236111,115.880465 L55.2236111,114.880465 L63.1022907,114.880465 L11.4834957,63.2616703 L12.1906025,62.5545635 L63.8093975,114.173359 Z" id="Rectangle-29" transform="translate(38.353553, 89.424621) rotate(-315.000000) translate(-38.353553, -89.424621) "></path>
                </g>
            </g>
        </g>
    </g>
</svg>