<?xml version="1.0" encoding="UTF-8"?>
<glyph name="Ccedilla" format="1">
  <advance width="815"/>
  <unicode hex="00C7"/>
  <outline>
    <contour>
      <point x="318" y="-19"/>
      <point x="221" y="24"/>
      <point x="150" y="95" type="curve" smooth="yes"/>
      <point x="79" y="166"/>
      <point x="36" y="263"/>
      <point x="36" y="370" type="curve" smooth="yes"/>
      <point x="36" y="478"/>
      <point x="79" y="574"/>
      <point x="150" y="645" type="curve" smooth="yes"/>
      <point x="221" y="716"/>
      <point x="318" y="759"/>
      <point x="425" y="759" type="curve" smooth="yes"/>
      <point x="529" y="759"/>
      <point x="626" y="719"/>
      <point x="699" y="647" type="curve" smooth="yes"/>
      <point x="720" y="626"/>
      <point x="717" y="603"/>
      <point x="693" y="584" type="curve" smooth="yes"/>
      <point x="614" y="522" type="line" smooth="yes"/>
      <point x="591" y="503"/>
      <point x="574" y="506"/>
      <point x="551" y="525" type="curve" smooth="yes"/>
      <point x="515" y="555"/>
      <point x="473" y="570"/>
      <point x="425" y="570" type="curve" smooth="yes"/>
      <point x="370" y="570"/>
      <point x="320" y="547"/>
      <point x="284" y="511" type="curve" smooth="yes"/>
      <point x="248" y="475"/>
      <point x="225" y="425"/>
      <point x="225" y="370" type="curve" smooth="yes"/>
      <point x="225" y="315"/>
      <point x="248" y="265"/>
      <point x="284" y="229" type="curve" smooth="yes"/>
      <point x="320" y="193"/>
      <point x="370" y="171"/>
      <point x="425" y="171" type="curve" smooth="yes"/>
      <point x="471" y="171"/>
      <point x="512" y="185"/>
      <point x="547" y="213" type="curve"/>
      <point x="570" y="230"/>
      <point x="588" y="234"/>
      <point x="611" y="215" type="curve" smooth="yes"/>
      <point x="688" y="150" type="line" smooth="yes"/>
      <point x="711" y="131"/>
      <point x="714" y="107"/>
      <point x="691" y="86" type="curve" smooth="yes"/>
      <point x="619" y="18"/>
      <point x="525" y="-19"/>
      <point x="425" y="-19" type="curve" smooth="yes"/>
    </contour>
    <contour>
      <point x="351" y="42"/>
      <point x="374" y="58"/>
      <point x="395" y="58" type="curve" smooth="yes"/>
      <point x="416" y="58"/>
      <point x="437" y="42"/>
      <point x="437" y="9" type="curve" smooth="yes"/>
      <point x="437" y="-2"/>
      <point x="437" y="-12"/>
      <point x="436" y="-20" type="curve" smooth="yes"/>
      <point x="434" y="-36"/>
      <point x="434" y="-46"/>
      <point x="440" y="-50" type="curve" smooth="yes"/>
      <point x="443" y="-52"/>
      <point x="448" y="-52"/>
      <point x="455" y="-51" type="curve"/>
      <point x="466" y="-49"/>
      <point x="478" y="-48"/>
      <point x="491" y="-48" type="curve" smooth="yes"/>
      <point x="516" y="-48"/>
      <point x="540" y="-58"/>
      <point x="558" y="-78" type="curve" smooth="yes"/>
      <point x="567" y="-88"/>
      <point x="573" y="-102"/>
      <point x="578" y="-120" type="curve" smooth="yes"/>
      <point x="595" y="-188"/>
      <point x="561" y="-231"/>
      <point x="484" y="-250" type="curve" smooth="yes"/>
      <point x="436" y="-262"/>
      <point x="396" y="-260"/>
      <point x="379" y="-252" type="curve" smooth="yes"/>
      <point x="364" y="-245"/>
      <point x="361" y="-227"/>
      <point x="369" y="-212" type="curve" smooth="yes"/>
      <point x="373" y="-205"/>
      <point x="382" y="-199"/>
      <point x="396" y="-194" type="curve"/>
      <point x="409" y="-190"/>
      <point x="428" y="-186"/>
      <point x="451" y="-182" type="curve" smooth="yes"/>
      <point x="488" y="-175"/>
      <point x="503" y="-157"/>
      <point x="502" y="-142" type="curve" smooth="yes"/>
      <point x="501" y="-127"/>
      <point x="484" y="-115"/>
      <point x="456" y="-123" type="curve" smooth="yes"/>
      <point x="421" y="-132"/>
      <point x="379" y="-142"/>
      <point x="356" y="-126" type="curve"/>
      <point x="347" y="-119"/>
      <point x="342" y="-102"/>
      <point x="342" y="-77" type="curve" smooth="yes"/>
      <point x="342" y="-52"/>
      <point x="344" y="-24"/>
      <point x="347" y="9" type="curve" smooth="yes"/>
    </contour>
  </outline>
</glyph>
