<?xml version="1.0" encoding="UTF-8"?>
<glyph name="macron" format="1">
  <advance width="430"/>
  <unicode hex="00AF"/>
  <outline>
    <contour>
      <point x="367" y="897" type="line" smooth="yes"/>
      <point x="397" y="897"/>
      <point x="412" y="882"/>
      <point x="412" y="852" type="curve" smooth="yes"/>
      <point x="412" y="822"/>
      <point x="397" y="807"/>
      <point x="367" y="807" type="curve" smooth="yes"/>
      <point x="77" y="807" type="line" smooth="yes"/>
      <point x="47" y="807"/>
      <point x="32" y="822"/>
      <point x="32" y="852" type="curve" smooth="yes"/>
      <point x="32" y="882"/>
      <point x="47" y="897"/>
      <point x="77" y="897" type="curve" smooth="yes"/>
    </contour>
  </outline>
</glyph>
