<?xml version="1.0" encoding="UTF-8"?>
<glyph name="ocircumflex" format="1">
  <advance width="913"/>
  <unicode hex="00F4"/>
  <outline>
    <contour>
      <point x="321" y="-18"/>
      <point x="225" y="26"/>
      <point x="154" y="96" type="curve" smooth="yes"/>
      <point x="83" y="166"/>
      <point x="40" y="263"/>
      <point x="40" y="370" type="curve" smooth="yes"/>
      <point x="40" y="478"/>
      <point x="83" y="574"/>
      <point x="154" y="645" type="curve" smooth="yes"/>
      <point x="225" y="716"/>
      <point x="321" y="759"/>
      <point x="429" y="759" type="curve" smooth="yes"/>
      <point x="536" y="759"/>
      <point x="633" y="716"/>
      <point x="704" y="645" type="curve" smooth="yes"/>
      <point x="775" y="574"/>
      <point x="818" y="478"/>
      <point x="818" y="370" type="curve" smooth="yes"/>
      <point x="818" y="263"/>
      <point x="775" y="166"/>
      <point x="704" y="96" type="curve" smooth="yes"/>
      <point x="633" y="26"/>
      <point x="536" y="-18"/>
      <point x="429" y="-18" type="curve" smooth="yes"/>
    </contour>
    <contour>
      <point x="374" y="570"/>
      <point x="324" y="547"/>
      <point x="288" y="511" type="curve" smooth="yes"/>
      <point x="252" y="475"/>
      <point x="229" y="425"/>
      <point x="229" y="370" type="curve" smooth="yes"/>
      <point x="229" y="315"/>
      <point x="252" y="265"/>
      <point x="288" y="229" type="curve" smooth="yes"/>
      <point x="324" y="193"/>
      <point x="374" y="171"/>
      <point x="429" y="171" type="curve" smooth="yes"/>
      <point x="484" y="171"/>
      <point x="534" y="193"/>
      <point x="570" y="229" type="curve" smooth="yes"/>
      <point x="606" y="265"/>
      <point x="628" y="315"/>
      <point x="628" y="370" type="curve" smooth="yes"/>
      <point x="628" y="425"/>
      <point x="606" y="475"/>
      <point x="570" y="511" type="curve" smooth="yes"/>
      <point x="534" y="547"/>
      <point x="484" y="570"/>
      <point x="429" y="570" type="curve" smooth="yes"/>
    </contour>
    <contour>
      <point x="383" y="820" type="line" smooth="yes"/>
      <point x="371" y="806"/>
      <point x="356" y="799"/>
      <point x="337" y="799" type="curve" smooth="yes"/>
      <point x="322" y="799" type="line" smooth="yes"/>
      <point x="291" y="799"/>
      <point x="281" y="820"/>
      <point x="301" y="845" type="curve" smooth="yes"/>
      <point x="376" y="938" type="line" smooth="yes"/>
      <point x="388" y="952"/>
      <point x="403" y="959"/>
      <point x="422" y="959" type="curve" smooth="yes"/>
      <point x="424" y="959" type="line" smooth="yes"/>
      <point x="443" y="959"/>
      <point x="458" y="952"/>
      <point x="469" y="938" type="curve" smooth="yes"/>
      <point x="544" y="845" type="line" smooth="yes"/>
      <point x="565" y="820"/>
      <point x="555" y="799"/>
      <point x="523" y="799" type="curve" smooth="yes"/>
      <point x="509" y="799" type="line" smooth="yes"/>
      <point x="490" y="799"/>
      <point x="474" y="806"/>
      <point x="462" y="820" type="curve" smooth="yes"/>
      <point x="423" y="867" type="line"/>
    </contour>
  </outline>
</glyph>
