<?xml version="1.0" encoding="UTF-8"?>
<glyph name="scommaaccent" format="1">
  <advance width="764"/>
  <unicode hex="0219"/>
  <outline>
    <contour>
      <point x="484" y="186"/>
      <point x="490" y="197"/>
      <point x="491" y="209" type="curve" smooth="yes"/>
      <point x="492" y="220"/>
      <point x="489" y="230"/>
      <point x="482" y="237" type="curve" smooth="yes"/>
      <point x="479" y="240"/>
      <point x="475" y="243"/>
      <point x="470" y="247" type="curve"/>
      <point x="459" y="254"/>
      <point x="440" y="264"/>
      <point x="405" y="274" type="curve" smooth="yes"/>
      <point x="387" y="279"/>
      <point x="365" y="284"/>
      <point x="338" y="289" type="curve" smooth="yes"/>
      <point x="229" y="312"/>
      <point x="133" y="354"/>
      <point x="94" y="410" type="curve"/>
      <point x="74" y="441"/>
      <point x="64" y="474"/>
      <point x="62" y="505" type="curve" smooth="yes"/>
      <point x="60" y="536"/>
      <point x="63" y="565"/>
      <point x="71" y="588" type="curve"/>
      <point x="87" y="640"/>
      <point x="127" y="683"/>
      <point x="179" y="713" type="curve" smooth="yes"/>
      <point x="231" y="743"/>
      <point x="296" y="760"/>
      <point x="367" y="760" type="curve" smooth="yes"/>
      <point x="427" y="760"/>
      <point x="477" y="750"/>
      <point x="518" y="738" type="curve" smooth="yes"/>
      <point x="558" y="725"/>
      <point x="591" y="707"/>
      <point x="616" y="691" type="curve" smooth="yes"/>
      <point x="641" y="675"/>
      <point x="645" y="654"/>
      <point x="626" y="629" type="curve" smooth="yes"/>
      <point x="572" y="554" type="line"/>
      <point x="557" y="531"/>
      <point x="536" y="526"/>
      <point x="510" y="541" type="curve" smooth="yes"/>
      <point x="474" y="562"/>
      <point x="423" y="583"/>
      <point x="367" y="583" type="curve" smooth="yes"/>
      <point x="331" y="583"/>
      <point x="306" y="575"/>
      <point x="290" y="566" type="curve" smooth="yes"/>
      <point x="274" y="557"/>
      <point x="266" y="545"/>
      <point x="263" y="537" type="curve" smooth="yes"/>
      <point x="255" y="517"/>
      <point x="264" y="503"/>
      <point x="282" y="492" type="curve" smooth="yes"/>
      <point x="300" y="481"/>
      <point x="327" y="474"/>
      <point x="359" y="467" type="curve" smooth="yes"/>
      <point x="515" y="436"/>
      <point x="599" y="395"/>
      <point x="636" y="347" type="curve" smooth="yes"/>
      <point x="675" y="296"/>
      <point x="685" y="236"/>
      <point x="674" y="173" type="curve" smooth="yes"/>
      <point x="667" y="125"/>
      <point x="642" y="77"/>
      <point x="595" y="41" type="curve" smooth="yes"/>
      <point x="548" y="4"/>
      <point x="478" y="-20"/>
      <point x="381" y="-20" type="curve" smooth="yes"/>
      <point x="375" y="-20"/>
      <point x="369" y="-20"/>
      <point x="363" y="-20" type="curve" smooth="yes"/>
      <point x="356" y="-20"/>
      <point x="350" y="-20"/>
      <point x="343" y="-19" type="curve"/>
      <point x="266" y="-15"/>
      <point x="177" y="1"/>
      <point x="77" y="58" type="curve" smooth="yes"/>
      <point x="50" y="73"/>
      <point x="46" y="97"/>
      <point x="65" y="121" type="curve" smooth="yes"/>
      <point x="132" y="205" type="line"/>
      <point x="149" y="228"/>
      <point x="170" y="231"/>
      <point x="195" y="216" type="curve" smooth="yes"/>
      <point x="247" y="185"/>
      <point x="287" y="171"/>
      <point x="344" y="164" type="curve" smooth="yes"/>
      <point x="401" y="157"/>
      <point x="451" y="163"/>
      <point x="472" y="178" type="curve" smooth="yes"/>
    </contour>
    <contour>
      <point x="323" y="-19"/>
      <point x="420" y="-22"/>
      <point x="419" y="-109" type="curve" smooth="yes"/>
      <point x="419" y="-136"/>
      <point x="413" y="-165"/>
      <point x="404" y="-187" type="curve" smooth="yes"/>
      <point x="395" y="-209"/>
      <point x="383" y="-225"/>
      <point x="367" y="-225" type="curve" smooth="yes"/>
      <point x="352" y="-225"/>
      <point x="341" y="-210"/>
      <point x="333" y="-187" type="curve"/>
      <point x="324" y="-164"/>
      <point x="320" y="-135"/>
      <point x="320" y="-107" type="curve" smooth="yes"/>
    </contour>
  </outline>
</glyph>
