<?xml version="1.0" encoding="UTF-8"?>
<glyph name="wdieresis" format="1">
  <advance width="1038"/>
  <unicode hex="1E85"/>
  <outline>
    <contour>
      <point x="51" y="692" type="line" smooth="yes"/>
      <point x="44" y="723"/>
      <point x="59" y="741"/>
      <point x="91" y="741" type="curve" smooth="yes"/>
      <point x="193" y="741" type="line" smooth="yes"/>
      <point x="220" y="741"/>
      <point x="237" y="728"/>
      <point x="243" y="701" type="curve" smooth="yes"/>
      <point x="312" y="376" type="line"/>
      <point x="401" y="703" type="line" smooth="yes"/>
      <point x="408" y="728"/>
      <point x="424" y="741"/>
      <point x="451" y="741" type="curve" smooth="yes"/>
      <point x="560" y="741" type="line" smooth="yes"/>
      <point x="587" y="741"/>
      <point x="603" y="728"/>
      <point x="610" y="703" type="curve" smooth="yes"/>
      <point x="699" y="378" type="line"/>
      <point x="768" y="701" type="line" smooth="yes"/>
      <point x="774" y="728"/>
      <point x="791" y="741"/>
      <point x="818" y="741" type="curve" smooth="yes"/>
      <point x="919" y="741" type="line" smooth="yes"/>
      <point x="951" y="741"/>
      <point x="966" y="723"/>
      <point x="959" y="692" type="curve" smooth="yes"/>
      <point x="817" y="40" type="line" smooth="yes"/>
      <point x="811" y="13"/>
      <point x="794" y="0"/>
      <point x="767" y="0" type="curve" smooth="yes"/>
      <point x="651" y="0" type="line" smooth="yes"/>
      <point x="624" y="0"/>
      <point x="608" y="13"/>
      <point x="601" y="38" type="curve" smooth="yes"/>
      <point x="506" y="386" type="line"/>
      <point x="411" y="38" type="line"/>
      <point x="403" y="13"/>
      <point x="386" y="0"/>
      <point x="360" y="0" type="curve" smooth="yes"/>
      <point x="244" y="0" type="line" smooth="yes"/>
      <point x="217" y="0"/>
      <point x="200" y="13"/>
      <point x="194" y="40" type="curve" smooth="yes"/>
    </contour>
    <contour>
      <point x="374" y="802"/>
      <point x="345" y="831"/>
      <point x="345" y="867" type="curve" smooth="yes"/>
      <point x="345" y="903"/>
      <point x="374" y="932"/>
      <point x="409" y="932" type="curve" smooth="yes"/>
      <point x="445" y="932"/>
      <point x="474" y="903"/>
      <point x="474" y="867" type="curve" smooth="yes"/>
      <point x="474" y="831"/>
      <point x="445" y="802"/>
      <point x="409" y="802" type="curve" smooth="yes"/>
    </contour>
    <contour>
      <point x="567" y="802"/>
      <point x="538" y="831"/>
      <point x="538" y="867" type="curve" smooth="yes"/>
      <point x="538" y="903"/>
      <point x="567" y="932"/>
      <point x="602" y="932" type="curve" smooth="yes"/>
      <point x="638" y="932"/>
      <point x="667" y="903"/>
      <point x="667" y="867" type="curve" smooth="yes"/>
      <point x="667" y="831"/>
      <point x="638" y="802"/>
      <point x="602" y="802" type="curve" smooth="yes"/>
    </contour>
  </outline>
</glyph>
